[{
	"theme": "Алгачкы сөз",
	"collapsed": false,
	"content": [
		"Азыркы учурда, коомдо, өндүрүштө дегеле бардык чөйрөдө заманбап маалымат технологияларды активдүү колдонуу менен массалык түрдө  автоматташтыруу жүрүп жатат. Ушуну менен эле бирге жаңы технология жана  техникалар менен иштеп, тейлөөчү адистерди жетиштүү жана сапаттуу даярдоо  маселесинин келип чыгуусу баарыбызга маалым. Бул окуу колдонмонун  негизги максаттарынын бири болуп - жогорудагы маселелердин чечилишине  салым кошууга аракет кылуу эсептелинет.",
		"Өлкөбүздө 1989-жылдын 23-сентябрында Кыргыз тили мамлекеттик тил деп жарыялаган мыйзам кабыл алынса дагы, эне тилде жазылган тиешелүү  адабияттар жана окуу колдонмолор жетишсиз. Окуу китептерин эне тилибизде  жарыкка чыгаруу жана сабак жүргүзүү бардыгыбыздын тилегибиз.",
		"Сабактарды мектептерде жана ЖОЖдо кыргыз тилинде окутууга көңүл буруу учурдун талабы.",
		"Назарыңыздардагы окуу китеби түрдүү максатта жасалган маалымат-эсептөө системдери үчүн программалык жабдылыштын индустриалдык  өндүрүшүнүн негизин түзгөн программалоо тилдерин окуп үйрөнүүгө  арналган. Учурда программалоо тилдердин саны миңдеп саналат. Ар биринин  өзүнө тиешелүү күчтүү жана алсыз жактары бар. Ошондуктан, ар бир  колдонуучу (программист) табитине жараша программалоо тилдерин тандап,  программа түзгөндү каалашат. Акыркы он жылдыкта Microsoft компаниясы  тарабынан .Net платформасындагы негизги программалоо тил катары  сунушталган жаңы C# (Си шарп) тили дүйнөлүк өндүрүштө кеңири тарап,  активдүү колдонулууда. C# тили өзүнө C++, Java, Visual Basic, Delphi ж.б.  тилдеринин пайдалуу каражаттарын камтыган.",
		"Тилди тандоо, C# компонентүү-ориентирленген тил болуп эсептелиши менен шартталган, аны Microsoft .Net Framework платформасынын көп тилдүү  программалоо чөйрөсүндө колдонуу мүмкүн.  Тиркемелерди иштеп чыгуу  чөйрөсү сапатында Visual Studio .Net колдонулат, ал тиркемелерди жүктөөдө  жазууда, корректирлөөдө, проект түзүүдө ыңгайлуу жана кубаттуу интерфейс.",
		"Колдонмонун максаты С# тилинде заманбап программалоо областында түшүнүк, билим, билүү, машыгуу системаларын формалоо, объекттүү-ориентирленген усулду колдонууга негизделген проектирлөө методдору,  программалык натыйжаларды түзүү жана анализдөө. Бул программалоо ык-  жөндөмүн тез өздөштүрүүгө көмөктөшөт. Негизинен колдонмо студенттерге  лекциялык, лабораториялык, практикалык сабактарды жана өз алдынча  иштерди аткарууда жана С# программалоо тилине кызыккандар үчүн бир топ  пайдалуу.",
		"<b>Колдонмодо максатка жетүү үчүн каралуучу негизги маселелер:</b><div><ol><li>Microsoft .Net Framework платформасы жөнүндө жана анын курамына кирген  технологиялар боюнча түшүнүк алуу;</li><li>С# программалоо тилинин мүмкүнчүлүктөрүн үйрөнүү;</li><li>Visual Studio .Net чөйрөсүндө С# тилинде консолдук тиркемелерди иштеп  чыгуу ыгын чыңоо;</li><li>Практикалык маселелерди чечүү үчүн алынган билимдерди колдонууну  үйрөтүү;</li><li>Дисциплиналар аралык ордун басуучулукту камсыз кылуу, мисалы  «Информатика жана программалоо» жана «Информатиканын жана  программалоо усулдарынын жогорку деңгээли» предметтери боюнча.</li></ol></div>",
		"Албетте, ушул колдонмо менен окурмандар үчүн программалоонун бардык жагын камтыган окуу китебин сунуш кылып жатабыз деп айтуудан алыспыз. Максат: «компьютерде программалоонун ыкмасын өздөштүрүү ар  бир сабаттуу адамдын колунан келет»-деген, тезисти гана далилдөө.",
		"Колдонмонун дагы бир өзгөчөлүгү болуп анын баяндоо стили болуп саналат. Материалдар жөн эле классикалык окуулуктардагыдай баяндалбастан, ар бир теориялык бөлүк дисскуссиялык лекция-семинар формасында баяндалган. Ошону менен бирге, ар бир окурман же студент практикалык тапшырмаларды аткаруу мүмкүнчүлүгүн ишке ашыруу максатында компьютер  менен камсыз болушу шарт. Ар бир теориялык бөлүктөн кийин бышыктоочу  практикалык мисалдар жана өз алдынча иштөө үчүн тапшырмалар берилген. Колдонмо 14 негизги темадан турат.",
		"Бул окуу китеп кыргыз тилинде жазылгандыгы үчүн ЖОЖдун, айрыкча айыл жеринен келген студенттер үчүн пайдалуу. Программалоо заманбап  информатиканын усулдарынын фундаменталдуу аспаптарынын бири болуп эсептелет. Актуалдуулугу C# тилинде программалоо менен консолдук тиркемелерди иштеп чыгуу жана аны окуу процессинде «Информатика жана  программалоо», «ЭЭМде практикум», «Колдонмо информатика»,  Программалоонун заманбап усулдары» ж.б. программалоо тилдери  пайдаланылуучу предметтерге жайылтууда колдонулушу.",
		"«Окуу китепти жакшыртуу максатында авторлор тарабынан бардык сын-пикирлер, каалоолор ыраазычылык менен кабыл алынат жана төмөнкү e-mail жөнөтсөңүздөр болот: <b>visualruss@gmail.com</b>"
	],
	"themes": []
}, {
	"theme": "1. Киришүү",
	"collapsed": false,
	"content": [],
	"themes": [{
		"theme": "Microsoft.Net Framework платформасы.",
		"content": [
			"Каражаттардын жыйындысынын жардамында программаларды жазуу,  корректирлөө, машиналык кодго айландыруу, отладкалоо жана жүктөөнү  иштеп чыгуу чөйрөсү же кыртыш (оболочка) деп аташат. .Net платформасы же  .Net Framework – бул программаны иштеп чыгуу чөйрөсүнөн кеңири түшүнүк,  бул Microsoft компаниясынын жаңы технологияларынын бири, ал ар түрдүү  программалоо тилдеринде түрдүү операциондук системалардын (ОС)  негизинде түрдүү типтеги тиркемелерди иштеп чыгууга мүмкүндүк берет.",
			"<b>.NET Framework өзүнө төмөндөгүлөрдү камтыйт:</b>",
			"<ol><li>Төрт официалдуу тилдерди: С#, VB.NET, Managed C++ жана JScript .NET.</li><li>Жалпы тилдүү объекттүү-ориентирленген CLR аткаруу чөйрөсүн (Common  Language Runtime).</li><li>FCL (Framework Class Library) жалпы атлыштагы өз ара байланышкан  класстардын китепканасынын катарын.</li></ol>"
		]
	}, {
		"theme": "Тиркеме, долбоор, чечим түшүнүктөрү",
		"content": [
			".NET Framework түзүлүүчү тиркемелердин мүмкүндүү типтерине эч кандай чек койбойт. Тиркемелердин бир топ тез кездешүүчүлөрүн карайлы:",
			"<ol><li>«Консолго» б.а. командалык процессордун терезесине чыгарууну аткарууга  мүмкүндүк береген <i>консолдук тиркемелер</i>.</li><li>Формалар, баскычтар, желекчелер ж.б.у.с. Windows интерфейсинин  элементтери колдонулуучу <i>Windows-тиркемелер</i>.</li><li>Каалаган web-браузер менен кароого мүмкүн болгон web-беттерди чагылдырган <i>Web-тиркемелер</i>.</li><li>Интернет аркылуу практика жүзүндө web-кызматты түзүүдө кайсы  программалоо тили колдонулганына жана кайсы системага жайгашканына  карабастан бирдиктүү синтаксисти колдонуу менен каалаган берилгендер менен алмашууга мүмкүндүк берген бөлүштүрүүчү тиркемелерди чагылдырган <i>Web-сервистер</i>.</li></ol>",
			"Иштеп чыгуу процессинде турган тиркеме <b>долбоор</b> (проект) д.а. Бир нече  тиркемелер <b>чечимге</b> (solution) бириктирилиши мүмкүн.",
			"Тиркемелерди иштеп чыгууга ыңгайлуу чөйрө болуп Visual Studio .Net  эсептелет."
		]
	}, {
		"theme": "Visual Studio .Net иштеп чыгуу чөйрөсү",
		"content": [
			"Окуу колдонмонун алкагында С# тилин үйрөнөбүз. Тил менен  таанышууну консолдук тиркеме иштеп чыгуудан баштайлы. Иштеп чыгуу  чөйрөсү сапатында Visual Studio .Net (VS) чөйрөсүн пайдаланабыз.",
			"С# тилиндеги баштапкы коддун файлын кадимки тексттик редактордун  жардамында түзүүгө болот. Мисалы, Блокнотто. Андан соң .NET Framework  түн курамындагы компилятордун жардамында аларды башкарылуучу модулга компиляциялоого болот. Бирок бул максат үчүн VS ти колдонуу бир топ  ыңгайлуу, себеби:",
			"<ol><li>VS алгачкы кодду компиляциялоо үчүн керектүү болгон бардык кадамдарды  автоматтык түрдө аткарат.</li><li>VS тексттик редактору VS колдогон бардык тилдер менен иштөөгө  ылайыкталган, мисалы С#. Ошондуктан ал кийрүү учурунда кайсы код  керектүү экендигин көрсөтөт жана каталарды интеллектуалдуу түрдө таба  алат.</li><li>VS курамына Windows- жана  Web-тиркемелердин колдонуучулук  интерфейсинин элементтерин чычканча менен жөнөкөй ташуу жолу менен  түзүүгө мүмкүндүк берген программалар дагы кирет .</li><li>С# та түзүлө турган көптөгөн долбоорлодун тиби алдын-ала программага  кошулуучу «каркастуу» коддун негизинде иштелип чыгат. VS ар бир жолу  кайрадан нөлдөн баштабастан, даяр баштапкы коду менен файлдарды  колдонууга мүмкүндүк берет жана долбоорду түзүүгө кеткен убакытты  үнөмдөйт.</li></ol>"
		]
	}, {
		"theme": "Биринчи долбоорду түзүү",
		"content": [
			"Долбоорду түзүү үчүн VS ну жүктөп, негизги менюдан <i><b>File – New – Project</b></i> буйругун тандайбыз. Андан кийин <i><b>New Project</b></i> диалогдук терезеси ачылат.",
			"{{img=1.png}}",
			"<b><i>Project types</i></b> талаасынан <i>Visual C#, <b>Templates</b></i> талаасынан <i>Console Application</i> тандайбыз.",
			"Name жолчосуна Hello тиркеменин атын кийиргиле. Бул ат Solution Name  жолчосунда да пайда болорун байкагыла. Create directory for Application  жолчосунан желекчени алып салгыла (азырынча жөнөкөй тиркеме түзөбүз,  анын структурасын татаалдаштыруунун зарылчылыгы жок).",
			"Location жолчосуна долбоорду кайда сактоо керектигин, дисктеги  жайгашуусун аныктагыла жана OK кнопкасын баскыла. Экрандын көрүнүшү төмөнкү сүрөттөгүдөй болот.",
			"{{img=2.png}}",
			"Оң жакта долбоорду башкаруу терезеси Solution Explorer жайгашат.  Эгерде ал жабык болсо, анда аны View - Solution Explorer буйругу менен  кошууга болот. Бул терезеде долбоорго кирүүчү бардык ресурстар саналган:",
			"<ol><li>AssemblyInfo.cs – кураштыруу жөнүндө маалымат. Компилятор өзүнүн аткарылуусунда exe же dll кеңейтилиши менен  кураштырууну түзөт.</li><li>System, System.Data, System.Xml – стандарттык библиотекага шилтемелер.</li><li>Program.cs - C# тилинде программанын тексти.</li></ol>",
			"Экрандын оң төмөн бөлүгүндө касиеттер терезеси (окно свойств)  жайгаштырылган. Эгерде ал жабык болсо, анда аны View – Properties буйругу  менен кошууга болот. Бул терезеде бөлүп алынган элементтин керектүү  мүнөздөмөлөрү чагылдырылат.",
			"Экрандын негизги чөйрөсүн редактирлөө терезеси ээлейт, анда чөйрө  автоматтык түрдө түзгөн программанын тексти жайгашат. Текст программист  керектүү кодду кошо турган каркасты көрсөтөт. Мында ачкычтык сөздөр көк  түс менен, комментарийлер жашыл түс менен, негизги текст кара түс менен  сунушталат. Текст структураланган. Минуска басып коддун блогун  жашырабыз, плюс белгисине басып ачабыз.",
			"Проект жайгашкан папканы ачып, анын структурасын көрөбүз. Коюу  шрифт менен бөлүнгөн файлдар компиляциялоодон кийин пайда болот.",
			"{{img=3.png}}",
			"<ol><li>Hello.sln – бардык проектке жооп берүүчү негизги файл. Эгерде проектти  редактирлөө үчүн ачуу керек болсо, анда так ушул файлды тандоого болот.  Каалган файлдар автоматтык түрдө ачылышат.</li><li>Program.cs – С# тилинде жазылган код, баштапкы код кармалган файл. Так  ушул файл менен биз үзгүлтүксүз иштейбиз.</li><li>Hello.exe – проекттин метаберилгендери жана генерацияланган IL-код  кармалган файлы. Башка сөз менен айтканда ушул файл даяр тиркеме болот,  .Net платформасы орнотулган каалаган компьютерде аткарылат. Эми  программанын текстин карайбыз.</li></ol>",
			"using System – бул директива, System аталыштар мейкиндигинен  стандарттык класстардын аттарын колдонууга мүмкүндүк берет.",
			"Namespace ачкычтык сөзү долбоордун аталышында долбоор үчүн өздүк  жеке мейкиндигин түзөт. Биздин учурда долбоордун аты Hello деп аталат.  Бирок программист башка ат коюуга укугу бар. Аттар мейкиндиги аттарды  колдонуу областын чектейт.",
			"С# - объектүү-ориентирленген тил, ошондуктан анда жазылган  программа өз ара байланышкан класстардын жыйынтыгын көрсөтөт.  Автоматтык түрдө класс Program аты менен түзүлгөн.",
			"Берилген класс бир гана усулду кармайт- Main() усулу. Main() усулу  программага кирүү чекити болуп эсептелет, так ушул усулдан тиркеменин  аткарылышы башталат. С# тилинде түзүлгөн ар бир программа Main () усулуна  ээ болушу керек.",
			"Main() усулу бир негизги өзгөчөлүккө ээ. void маанини кайтарып берүүчү типти жарыялоодон мурда static ачкычтык сөзү турат, Main() усулун Program  тибиндеги объектти түзбөй туруп деле чакырууга болот.",
			"Усулга төмөнкү кодду кошобуз:  Console.WriteLine(\"Hello!\");",
			"Мында Console System аталыштар мейкиндигиндеги стандарттык  класстын аты. Анын усулу WriteLine тырмакчада берилген текстти экранга  чыгарат.",
			"Программаны жүктөө үчүн F5 клавишасын басабыз же Debug-Start  Debugging буйругун аткарабыз. Эгерде программа катасыз аткарылган болсо,  анда билдирүү консолдук терезеге чыгарылат. Билдирүүнү нормалдуу режимде  көрүү үчүн Ctrl+F5 клавишаларын басып же Debug-Start Without Debugging  буйругун аткарабыз. Биздин учурда төмөнкү консолдук терезе ачылат:",
			"{{img=4.png}}",
			"Эгерде программанын кодунда ката болсо, мисалы, чыгаруу  командасынан кийин үтүрлүү чекит коюлбаса, F5 клавишасы басылгандан  кийин ката кетирилгендиги тууралуу билдирүү берген диалогдук терезе чыгат  жана суроо белгиси андан ары иштөөнү улантууну сурайт. Эгерде Yes деп жооп  берсеңер, анда программанын алгачкы компиляцияланган версиясы ийгиликтүү  аткарылат. Антпесе процесс токтотулат жана башкаруу Error List каталар  тизмеси терезесине берилет.",
			"<div><b>Тапшырма.</b> Тексттин кодун өзгөртүп, экранга төмөнкү билдирүү чыга турган болсун: <i>Ура!!! Бүгүн информатика!!!</i></div>"
		]
	}]
}, {
	"theme": "2. С# программалоо тилинин негизги түшүнүктөрү",
	"collapsed": false,
	"content": [],
	"themes": [{
		"theme": "Объекттүү-ориентирленген программалоо технологиясы",
		"content": ["С# тилинин негизинде объекттүү-ориентирленген программалоо (ООП)  технологиясы жатат. С# тилинде бардык программалар чоң же кичине даражада  объекттүү-ориентирленген болот.", "ООП «класс», «объект», «интерфейс», «полиморфизм», «окуя»  түшүнүктөрүнө негизделген.", "<b>Программада объект</b> — бул реалдуу дүйнөнүн абстракциясы (жалпы  түшүнүгү). Объект атрибутка, жүрүш-турушка жана индивидуалдуулука ээ.  Атрибуттары объекттин негизги белгилерин, жүрүш-туруштары — объекттин  үстүнөн жргүзүлгөн аракеттерди, индивидуалдуулугу — бир объекттин башка  объекттен конкреттүү мааниси боюнча айырмачылыгын аныкташат.", "<b><i>Класс</i></b> – бул бирдей атрибуттарга жана жүрүш-туруштарга ээ болгон объекттердин көптүгү. Ал программалоо тилинде берилгендердин абстрактуу тиби көрүнүшүндө чагылдырылат жана өзүнө класстын мүчөлөрүн камтыйт. Алардын кээ бирлерин карайбыз:", "<ul><li><b>талаалар</b> - атрибуттарды баяндоо үчүн аныкталган типтеги үзгүлтүксүз  берилгендер;</li><li><b>методдор</b> – берилген класстын объектисинин ички берилгендерин  иштетүү үчүн арналган функциялар;</li><li><b>касиеттер</b> - бул берилгендердин атайын талаалары, алардын  жардамында берилген класстын объектисинин жүрүш-турушун  башкарууга болот.</li></ul>", "Класс объектти түзүү үчүн үлгү болуп кызмат кылат же башка сөз менен  айтканда объект класстын экземпляры болуп эсептелет.", "Объекттин негизги касиети болуп өзгөчөлүк эсептелет. Объектти  реализациялоонун деталдары, б.а. берилгендердин ички структурасы аларды  иштетүүнүн алгоритмдери колонуучуга жашыруун жана өзгөртүүгө  мүмкүнчүлүк жок."]
	}, {
		"theme": "Тилдин составы.",
		"content": ["<b>Алфавит</b> – бул тилде мүмкүн болгон символдордун удаалаштыгы. С# тын алфавитине төмөнкүлөр кирет:", "<ol><li>чоң жана кичине латын тамгалары жана улуттук алфавиттин тамгалары  кириллица кошо);</li><li>0 дон 9 га чейинки араб цифралары, он алтылык цифралар A дан Fке чейин;</li><li>атайын белгилер: \" { } , | ; [ ] ( ) + - /, % * . ү ' : ? < = > ! & ~ ^  @_</li><li>боштук символдору: боштук (пробел), табуляция символу, жаңы жолчого  өтүү символу.</li></ol>", "Алфавиттин  символдорунан  тилдин  лексемасы  формаланат:  идентификаторлор, ачкычтык сөздөр, амалдардын белгилери, константалар,  бөлүүчүлөр (кашаалар, чекит, үтүр, боштук символдор).", "Лексемалардын чек аралары башка лексемалар менен аныкталышат,  бөлүүчүлөр же амалдардын белгилери. Өз учурунда лексемалар  туюнтмалардын составына кирет жана операторлор (оператор кээ бир  аракеттердин бүткөн баяндамасын берет).", "<b>Идентификатор</b> - бул программалык элементтин аты: константалар,  өзгөрүлмөлөр, белгилер (метки), типтер, класстар, объекттер, усулдар ж.б.у.с.  Идентификатор өзүнө латын тамгаларын жана улуттук алфавиттин тамгаларын,  цифраларды жана сызуу символун (‘_’) камтыйт. Жазма жана басма латын  тамгалары айырмаланышат, мисалы, myname, myName жана MyName — үч  түрдүү аттар. Идентификатордун биринчи символу тамга же сызуу символу  болушу мүмкүн, бирок цифра болбошу керек.", "Аттын ичинде боштук символуна уруксат берилбейт. С# тили аттын  узундугуна чек койбойт, бирок окууга жана жазууга ыңгайлуу болсун үчүн  аларды абдан узун атабоо сунушталат.", "<b><i>Ачкычтык сөздөр</i></b> - бул компилятор үчүн атайын маанилерге ээ болгон  алдын-ала белгиленген идентификаторлор, мисалы include, main, int ж.б.у.с.  Ачкычтык сөздөрдү өзүнүн түз маанисинде гана колдонууга мүмкүн."]
	}, {
		"theme": "Берилгендердин типтери",
		"content": [
			"С# так типтештирүлүүчү тил б.э. Анда программалык элементтерди  түзүүчү бардык типтерди баяндоо зарыл (мисалы, өзгөрүлмөлөрдү,  объекттерди, терезе, кнопкаларды ж.б.у.с.). Ал компиляторго объекттерге  уруксат берилген гана типтерди ыйгарууну көзөмөлдөп, каталардын пайда  болуусунан алдын-ала сактоого мүмкүндүк берет. Программалык элементтин  тиби компиляторго анын өлчөмү, мүмкүнчүлүгү жөнүндө билдирет (мисалы, int  тиби объект 4 байт ээлешин көрсөтөт).",
			"С# тилинде типтер 2 тайпага бөлүнүшөт: тил сунуштаган базалык  типтер жана колдонуучу аныктаган типтер. Андан сырткары, С# типтери 2  категорияга бөлүнүшөт: өлчөмдүк типтер (мааниси боюнча типтер) жана  ссылкалуу типтер. Object жана String типтеринен башка бүт базалык типтер  өлчөмдүү типтер б.э.",
			"С# тилинин базалык тибтеринин .NET платформасынын типтерине дал  келүүсү С#та түзүлгөн объекттер .NET CLS талабын канааттандыруучу  каалаган тилде түзүлгөн объекттер менен барабар деңгээлде колдонулушу  мүмкүн (мисалы, VB.NET тилинде).",
			"{{img=5.png}}",
			"{{img=6.png}}",
			"{{img=7.png}}"
		]
	}, {
		"theme": "Өзгөрүлмөлөр жана турактуулар.",
		"content": [
			"Өзгөрүлмө ар качан эстин типтештирилген областын көрсөтөт.",
			"<code>static void Main() {<br /><span />int i=10; // i өзгөрүлмөсүн бүтүн сандуу жарыялоо жана инициализациялоо<br /><span />Console.WriteLine(i); // өзгөрүлмөнүн маанисин көрүү<br /><span />i = 100; // өзгөрүлмөнүн маанисин өзгөртүү<br /><span />Console.WriteLine(i);<br /><span id='s' />}</code>",
			"С#  тилинде  өзгөрүлмөлөр  аларды  колдонууга  чейин  инициализацияланган болуусун талап кылынат.  Мисалы:",
			"<code>static void Main() {<br /><span />int i;<span />Console.WriteLine(i);<br /><span id='s' />}</code>",
			"Компиляциялоо учурунда төмөндөгүдөй ката жөнүндө маалымат экранга чыгат:  Use of unassigned local variable 'i'.",
			"Константа – маанисин өзгөртүүгө мүмкүн болбогон өзгөрүлмө.  Константалар 3 түрдө болушат: литералалар, символдук константалар жана  тизмелер (перечисления).",
			"<code>const <тип> <идентификатор> = <маани>;</code>",
			"Мисал:",
			"<code>static void Main() {<br /><span />const int i=10; // i константасын бүтүнсандуу жарыялоо<br /><span />Console.WriteLine(i); // константанын маанисин көрүү<br /><span />i=100; // ката<br /><span />Console.WriteLine(i); // константанын маанисин көрүү<br /><span id='s' />}",
				"<i>Тизме (enumerations)</i> константага альтернативалуу (атаандаш) болот.  Тизме – бул өзгөчө өлчөмдүү тип, аталган константалардын жыйындысынан  турат.",
				"Аныктоо синтаксиси:",
				"<code>[атрибуттар] [модификаторлор] enum <аты> [ : базалык тип]  {константаларды тизмеси (үтүр аркылуу)};</code>",
				"Базалык тип – бул тизме тиби. Эгерде базалык тип көрсөтүлбөсө,  унчукпастан int тиби колдонулат. Базалык тип катары char тибинен сырткары  каалаган бүтүн тип колдонулат.",
				"<code>class Program {<br /><span />enum gradus:int {<br /><span />min=0,<br /><span />krit=72,<br /><span />max=100,<br /><span id='s' />}<br /><span />static void Main() {<br /><span />Console.WriteLine(\"минималдык температура=\" + (int) gradus.min);<br /><span />Console.WriteLine(\"критикалык температура=\" + (int)gradus.krit);<br /><span />Console.WriteLine(\"максималдык температура=\" + (int)gradus.max);<br /><span />}<br /><span id='s' />}</code>"
		]
	}, {
		"theme": "Берилгендерди кийирүү-чыгарууну уюштуруу. Форматтоо.",
		"content": ["Программа берилгендерди кийирүү жана жыйынтыктарды чыгарууну  уюштурууда сырткы түзүлүштөр менен аракеттенет. Кийирүүнүн (клавиатура)  жана чыгаруунун (экран) стандарттык түзүлүштөрүнүн жыйындысы консоль  деп аталат. С# тилинде кийирүү жана чыгаруу операторлору жок. Алардын  ордуна сырткы түзүлүштөр менен берилгендерди алмаштыруу үчүн атайын  объекттер колдонулат. Консоль менен иштөө үчүн System аталыштар  мейкиндигинде аныкталган стандарттык Console классы колдонулат."]
	}, {
		"theme": "Берилгендерди чыгаруу",
		"content": [
			"<ol><li>Console.WriteLine(x); //экранга x идентификаторунун мааниси чыгарат</li></ol>"
		]
	}]
}, {
	"theme": "3. С# программалоо тилинин негизги амалдары",
	"collapsed": false,
	"content": [],
	"themes": [{
		"theme": "Амалдар",
		"content": [
			"С# тилинин бардык амалдарынын тизмеси алардын тиешелүүлүк приоритеттери менен 1-тиркемеде көрсөтүлгөн. Берилген бөлүктө амалдардын бөлүгүн гана карайбыз, калган амалдар зарылчылык өлчөмү боюнча каралат.",
			"<b>Эскертүү</b>. Амалдарды операнддардын саны боюнча классификацияласа  болот: унардык – бир операндга аракеттенет, бинардык – эки операндга таасир  этет, тернардык – үч операндга аракеттенет. Кээ бир символдор унардык дагы,  бинардык дагы амалдар катары белгилөө үчүн колдонулат. Мисалы, «кемитүү»  символу унардык амалды белгилөө үчүн – арифметикалык тануу катары  колдонулат, бинардык кемитүү амалын белгилөө үчүн да колдонулат. Берилген  символ унардык же бинардык амал катары белгилениши ал колдонулган  контекстте аныкталат.",
			"<b><i>1. Инкремент (++) жана декримент (--).</i></b>",
			"Бул амалдар жазуунун эки формасына ээ — префикстүү, амал  операнддын алдынан жазылганда, жана постфикстүү – амал операнддан  кийин жазылса. Инкременттин (декременттин) префикстүү амалы өзүнүн  операндын чоңойтот (кичирейтет) жана өзгөрүлгөн маанини жыйынтык катары  кайтарат. Инкременттин жана декременттин постфикстүү версиясы операнддын  биринчи маанисин кайтарат, анан гана аны өзгөртөт.",
			"Мисал:",
			"<code>static void Main(){<br /><span />int i = 3, j = 4;<br /><span />Console.WriteLine(\"{0} {1}\", i, j);<br /><span />Console.WriteLine(\"{0} {1}\", ++i, --j);<br /><span />Console.WriteLine(\"{0} {1}\", i++, j--);<br /><span />Console.WriteLine(\"{0} {1}\", i, j);<br /><span id='s' />}</code>",
			"<b>Жыйынтыгы</b>:",
			"3 4<br /><span id='l' />4 3<br /><span id='l' />4 3<br /><span id='l' />5 2",
			"<b><i>2. new амалы</i></b>. Жаңы объектти түзүү үчүн колдонулат.",
			"<code>object z=new object();<br /><span />int i=new int(); // int i =0;</code>",
			"<b><i>3. Тануу:</i></b>",
			"<ul><li>Арифметикалык тануу (-) – операнддын белгисин карама-каршысына  өзгөртөт.</li><li>Логикалык тануу (!) – логикалык тип үчүн инверсия амалын аныктайт.</li></ul>",
			"<code>static void Main() {<br /><span />int i = 3, j=-4;<br /><span />bool a = true, b=false;<br /><span />Console.WriteLine(\"{0} {1}\", -i, -j);<br /><span />Console.WriteLine(\"{0} {1}\", !a, !b);<br /><span id='s' />}</code>",
			"<b>Жыйынтыгы:</b>",
			"-3 4<br /><span id='l' />False True",
			"<b><i>4. Түздөн түз өзгөртүү тиби.</i></b> Бир типтен экинчисине түздөн түз өзгөртүү үчүн колдонулат.",
			"<b><i>Амалдын форматы:</i></b>",
			"<center><code>(тип) туюнтма;</code></center>",
			"<code>static void Main() {<br /><span />int i = -4;<br /><span />byte j = 4;<br /><span />int a = (int)j; //тактык жоголбойт<br /><span />byte b = (byte)i; //тактык жоголот<br /><span />Console.WriteLine(\"{0} {1}\", a, b);<br /><span id='s' />}</code>",
			"<b>Жыйынтыгы:</b>",
			"4 252",
			"<i><b>5. Көбөйтүү (*), бөлүү (/) жана калдыктуу бөлүү (%)</b></i>. Көбөйтүү жана бөлүү амалдары берилгендердин бүтүн жана чыныгы типтери үчүн колдонулат.",
			"<code>static void Main() {<br /><span />int i = 100, j = 15;<br /><span />double a = 14.2, b = 3.5;<br /><span />Console.WriteLine(\"{0} {1} {2}\", i*j, i/j, i%j);<br /><span />Console.WriteLine(\"{0} {1} {2}\", a * b, a / b, a % b);<br /><span id='s' />}</code>",
			"<b>Жыйынтыгы:</b>",
			"1500 6 10",
			"49.7 4.05714285714286 0.1999999999999999",
			"<b><i>6. Кошуу (+) жана кемитүү(-).</i></b> Кошуу жана кемитүү амалдары  берилгендердин бүтүнсандуу жана чыныгы типтери үчүн колдонулат.",
			"<b><i>7. Катыш амалдары (<, <=, >, >=, ==, !=).</i></b> Катыш амалдары сол жана оң операнддын маанисин салыштырат. Логикалык типтеги амалдын жыйынтыгы: true – эгерде мааниси дал келсе, false – тескери учурда. Мисал:"
		]
	}, {
		"theme": "Өз алдынча иштөө үчүн тапшырмалар:",
		"content": [
			"Интернетти жана кошумча адабияттарды колдонуп төмөнкү амалдарды үйрөнгүлө:",
			"<ol><li>солго жылдыруу (<<), оңго жылдыруу (>>);</li><li>разряддуу амалдар ЖАНА (&), эскертүүчү ЖЕ (^) жана ЖЕ (|);</li><li>татаал ыйгаруу амалдары: <<=, >>=, &=, ^=, |=.</li></ol>"
		]
	}]
}, {
	"theme": "4. C# тилинин операторлору",
	"content": ["С# тилинде программа операторлордун удаалаштыгынан турат, ар бири  кандайдыр бир аракеттердин бүткөн баянын аныктайт жана үтүрлүү чекит  менен бүтөт. Бардык операторлорду 4 тайпага бөлүүгө болот: сызыктуу  операторлору, бутактануу операторлору, циклдик операторлор жана  башкарууну берүү операторлору."],
	"collapsed": false,
	"themes": [{
		"theme": "Сызыктуу операторлору",
		"content": [
			"Сызыктуу операторлору компилятор менен башынан аягына чейин  кадимки иретте аткарылат. Сызыктуу операторуна туюнтма жана составдык оператор кирет.",
			"Үтүрлүү чекит менен бүткөн каалаган туюнтма оператор катары каралат.  Алар туюнтманын маанисин эсептөөнү же бүткөн аракетти аткарышы мүмкүн,  мисалы методду чакыруу.",
			"Мисалы:",
			"<code>++i; // инкремент оператору<br /><span id='s' />x+=y; // ыйгаруу менен кошуу оператору<br /><span id='s' />Console.WriteLine(x); // методду чакыруу<br /><span id='s' />x = Math.Pow(a,b)+a*b; // татаал туюнтманы эсептөө</code>",
			"Туюнтманын жэкече учурунун оператору болуп, “ ; “ (үтүрдү чекит) бош  оператору эсептелет.",
			"Составдуу оператор же блок {} фигуралуу кашаага бекилген  операторлордун удаалаштыгын берет. Блок өздүк көрүү областына ээ. Мында  блоктун ичинде жарыяланган аттар берилген блоктун ичинде гана мүмкүндүү  (доступны). Составдуу операторлор тилдин эрежеси боюнча бир гана  оператордун бар болушун караган учурда программанын логикасы боюнча бир  нече операторлор талап кылынганда колдонулат.",
			"Мисалы, while циклинин телосу бир гана оператордон турушу керек.  Эгерде фигуралык кашаага алынып бир нече операторду камтыса, анда  компиляторго бирдиктүү оператор катары каралат."
		]
	}, {
		"theme": "Өз алдынча иштөө үчүн тапшырмалар",
		"content": [
			"<b><i>1-маселе.</i></b> Шахматтын доскасы nxn клеткалуу өлчөмдө берилген. Досканын сол жогорку клеткасы кара жана (1, 1) номерге ээ. Мисалы, n=4 үчүн  шахматтуу таблица төмөнкү мүнөздө көрүнөт:",
			"{{img=8.png}}",
			"<ol><li>n берилген мааниси үчүн шахматтуу досканын кара ячейкасынын санын  аныктагыла;</li><li>ячейканын (k, m) номери боюнча анын түсүн аныктагыла;</li><li>(k1, m1) жана (k2, m2) номерлери менен ячейкалар бир түстө болобу же  болбойбу аныктагыла;</li><li>(k1, m1) номери менен ячейкада турган фигура (k2, m2) номери менен  ячейкада турган экинчи фигуранын чабуул талаасында тураарын  аныктагыла, экинчи фигуранын жүрүшү жана өзү төмөнкү учурларда: a)  пешка; b) слон; c) ладья; d) ферзь; e) конь.</li></ol>",
			"<b><i>2-маселе.</i></b> Дата < күн >.< ай >.< жыл > форматында берилген.  Аныктагыла:",
			"<ol><li>жылдын башынан канча күн өттү;  калды;</li><li>жылдын аягына чейин канча күн</li><li>алдынкы күндүн датасы;</li><li>кийнки күндүн датасы.</li></ol>",
			"<b><i>3-маселе.</i></b> n цифрадан турган натуралдык сан Армстронг саны б.э., эгерде  анын цифраларынын суммасын n-даражага көтөргөндө сандын өзүнө барабар  333болот. Мисалы, 153=1 +5 +3 . Армстронг санынын бардык үч маанилүү  сандарын тапкыла.",
			"<b><i>4-маселе.</i></b> Тик бурчтуктун жактары n жана m натуралдык сандары менен  берилген. Эгерде берилген тик бурчтукту ар бир кесүүдө: 1) эң кичине  аянттагы; 2) эң чоң аянттагы квадрат кесилип алынса, анда квадраттардын  санын тапкыла (жактары натуралдык сандар менен туюнтулган)."
		]
	}]
}, {
	"theme": "5. Методдор (усулдар): негизги түшүнүктөр",
	"collapsed": false,
	"content": [],
	"themes": [{
		"theme": "Негизги түшүнүк",
		"content": [
			"Метод – бул класстын эсептөө жана башка аракеттерин ишке ашыруучу  функционалдык элементи болуп саналат. Ал класс же анын көчүрмөсү (объект)  аркылуу аткарылат. Метод аты боюнча кайрылууга мүмкүн болгон коддун  бүткөн фрагментин чагылдырат. Ал бир гана жолу баяндалат, бирок көп жолу  чакырыла алат. Класстын методорунун көптүгү класс конкреттүү түрдө эмне  кыла алышын аныктайт. Мисалы, Math стандарттык классы математикалык  функциялардын маанисин эсептөөгө мүмкүндүк берүүчү методорду өзүнө  камтыйт.",
			"Методдун синтаксиси:",
			"<code>[атрибуттар] [спецификторлор] кайтарылуучу_ жыйынтыктын_тиби  методдун_аты ([параметрлердин_тизмеси]) {<br /><span />методдун_телосу;<br /><span />return маани;<br /><span id='s' />}</code>",
			"мында:",
			"<ol><li>Методду баяндоонун синтаксисинде атрибуттар жана спецификторлор зарыл  эмес элементтер болуп эсептелишет. Берилген этапта атрибуттар  колдонулбайт, спецификаторлордун ичинен мидеттүү иретте static  спецификаторун пайдаланабыз, ал класстын методуна экземплярын  түзбөстөн эле кайрылууга мүмкүндүк берет.</li><li>Кайтарылуучу_жыйынтыктын_ тиби методдун кайтарган маанисинин  тибин аныктайт. Бул каалагандай тип болушу мүмкүн. Эгерде метод эч  кандай маанини кайтарбаса, анда void тибин көрсөтүү зарыл (бул учурда  методдун телосунда return оператору жок болот).</li><li>Методдун_аты – программист методду атоо үчүн колдонгон уникалдуу  идентификатор.</li><li>Параметрлердин_тизмеси үтүр менен ажыратылган берилгендердин  тибинен жана идентификаторлордон турган жуптардын удаалаштыган берет.  Параметрлер — бул методду чакырууда берилүүчү маанилерди алуучу  өзгөрүлмөлөр же константалар. Эгер метод параметрге ээ болбосо, анда  параметрлердин_тизмеси бош калтырылат.</li><li>Маани метод кайтарган маанини аныктайт. Маанинин тиби кайтарылуучу_  жыйынтыктын_тибине дал келиши керек же ага келтирилиши керек.</li></ol>"
		]
	}, {
		"theme": "Методду жаңыдан жүктөө",
		"content": [
			"Кээде берилгендердин түрдүү типтери үчүн бирдей алгоритмди  реализациялоочу методдор бирдей атка ээ болушу ыңгайлуу болот. Бир нече  методу бирдей ат менен, бирок түрдүү тип жана параметрлердин саны менен  колдонуу методорду которуп алмаштырып жүктөө же жаңыдан жүктөө  (перегрузка методов) д.а. Компилятор фактылык параметрлердин саны жана тиби  боюнча кайсы методду чакырууну өзү аныктайт."
		]
	}]
}, {
	"theme": "6. Рекурсивдүү методдор",
	"content": [],
	"collapsed": false,
	"themes": [{
		"theme": "Рекурсивдүү методдор",
		"content": ["Эгерде метод өзүн-өзү жардамчы сапатында чакырса, анда ал  рекурсивдүү д.а. Рекурсивдүү методдун негизинде кандайдыр-бир түшүнүктүн  рекурсивдүү аныктамасы» жатат. Рекурсивдүү методддун классикалык  «мисалы факториалды эсептөө б.э.", "Математика курсунан 0!=1!=1, n!=1*2*3…*n экендиги белгилүү. Экинчи  жактан n!=(n-1)!*n. Мындай мүнөздө n параметринин айрым эки учуру  белгилүү, n=0 жана n=1, эч кандай кошумча эсептөөсүз факториалдын  маанисин эсептей алабыз. Калган бардык учурлар үчүн, б.а. n>1 үчүн n-1  параметри үчүн факториалдын мааниси аркылуу эсептелет. Мындай мүнөздө  рекурсивдүү метод төмөнкү көрүнүшкө ээ:"]
	}, {
		"theme": "Өз алдынча иштөө үчүн тапшырмалар",
		"content": ["1-маселе. n натуралдык саны үчүн мүмкүн болгон көбөйтүүчүлөргө  ажыратууну экранга чыгаруу үчүн рекурсивдүү методду иштеп  чыккыла(кайталоосуз). Мисалы, n=12 үчүн экранга төмөнкүлөр чыгарылышы  керек:", "223*2*3=12  *6=12  *4=12", "2-маселе. n натуралдык саны үчүн мүмкүн болгон кошулуучуларга  ажыратууну экранга чыгаруу үчүн рекурсивдүү методду иштеп  чыккыла(кайталоосуз). Мисалы, n=5 үчүн экранга төмөнкүлөр чыгарылышы  керек:", "1+1+1+1+1=5 11122+1+1+2=5  +1+3=5  +4=5  +1+2=5  +3=5 "]
	}]
}, {
	"theme": "7. Өзгөчө учурларды иштеп чыгуу",
	"collapsed": false,
	"content": [],
	"themes": [{
		"theme": "Өзгөчө учурларды иштеп чыгуу",
		"content": ["С# тили, башка көптөгөн объекттүү-ориентирленген тилдер сыяктуу  каталарга жана туура эмес учурларга жоюуларды иштеп чыгуу механизминин  жардамында таасирденет.", "Өзгөчө учурларды иштеп чыгуу - бул маалыматты «кадимки эмес  программалык окуя» менен генерациялаган объект. Мында программадагы  ката, ката учуру жана аны өзгөчө учурун ажыратуу зарыл.", "Программадагы ката аны иштеп чыгууда программист тарабынан  кетирилет. Мисалы, салыштыруу амалынын ордуна (==) ыйгаруу амалы  колдонулат (=). Программист заказчикке бергенге чейин ушул сыяктуу  каталарды оңдошу керек. Жоюуларды иштеп чыгуу механизмин колдонуу  программадагы каталардан коргоо болуп эсептелбейт.", "Каталык колдонуучунун аракети менен чакырылат. Мисалы, колдонуучу  сандын ордуна жолчону кийирген болсо. Мындай ката жоюуну чакырууга  шыктуу. Программист каталык учурун кыраакылык кылып күн мурунтан  көрүүсү зарыл жана келүүчү берилгендерди текшерүү мүмкүндүгү,  операторлордун жардамында алдын-ала сактап калуусу керек.", "Кур дегенде эгерде программист бүт өзүнүн каталарын оңдогондо да,  каталык учурларын алдын-ала көрсө да, ал баарыбир айтылбаган жана болбой  койбогон проблемаларга кездешиши мүмкүн – жоюлуучу абалдарга. Мисалы,  мүмкүндүү эстин жетишпестигине же жок эле файлды ачууга аракет кылуу.  Жоюулуучу абалдарды программист алдын-ала көрө албайт, бирок ал алардын  программанын жок болуп кетүүсүнө алып келбешине таасирденет.", "С# та каталарды жана жоюучу абалдарды иштетүү үчүн атайын  жоюуларды иштеп чыгуу ички системасы колдонулат. Берилген ички  системанын артыкчылыгы жоюуларды иштетүү боюнча коддун чоң бөлүгүн  автоматташтырууну түзүүдө турат. Мурда бул код программага «кол менен»  киргизилчү. Андан сырткары жоюуларды иштеткич мындай стандарттык  жоюулар тууралуу маалымат берүүгө жана аны таанууга шыктуу, нөлгө бөлүү  же индексти аныктоодо диапазондон сыртка тийгизүү сыяктуу."]
	}]
}, {
	"theme": "8. Массивдер",
	"content": [],
	"collapsed": false,
	"themes": [{
		"theme": "Массивдер",
		"content": ["Массив — бул жалпы атлыш менен бириктирилген бирдей типтеги  элементтердин жыйындысы. С# тилинде дагы массивдерди башка  программалоо тилдеринде колдонулган сыяктуу пайдалансак болот. Бирок С#-  массивдери башкалардан олуттуу айырмаланат, анткени алар берилгендердин  шилтемелуу типтерине кирет. Андан сырткары алар объекттер катары  реализацияланат. Фактылык түрдө массивдин аты үймөк областына шилтеме  б.э. (динамикалык эсте), анда аныкталган типтеги элементтердин жыйындысы  удаалаш жайгашат. Эстин бөлүнүшү массивди инициализациялоо этабында  жүргүзүлөт. Эсти бошотууну таштандыны топтоо системасы (система сборки  мусора) көзөмөлдөйт. Колдонулбаган массивдер ушул система менен жок  кылынат."]
	}, {
		"theme": "Массивдер жана өзгөчө учурлар",
		"content": ["C# та массивдин чек арасынан чыгуу ката катары бааланат, жооп катары  –IndexOutOfRangeException өзгөчө учуру генерацияланат.", "Төмөнкү мисалды карайлы:", "<code>static void Main()  {int[ ] myArray = { 0, 1, 2, 3, 4, 5, 6, 7, 8, 9 };  int i;  try  {for (i = 0; i <= 10; i++) Console.WriteLine(myArray[i]);  }catch (IndexOutOfRangeException)  {Console.WriteLine(\"Exception: Диапазондун чек арасынан чыгуу\");  }}</code>"]
	}, {
		"theme": "Практикалык тапшырмалар",
		"content": [
			"<b>I. Бир өлчөмдүү массивде, элементтери бүтүн болсо, төмөнкү аракеттерди  жүргүзүү керек:</b>",
			"<ol><li>Массивден бардык жуп сандарды өчүргүлө.</li><li>Берилген цифра менен аяктаган элементтерден кийин жаңы элементти  койгула.</li><li>Массивден кайталанган элементтерди өчүргүлө, биринчиси гана  калтырылсын.</li><li>Түрдүү белгиге ээ болгон элементтердин жубунун арасына жаңы элемент  койгула.</li><li>Массивден бардык нөл маанилерди өчүрүп, тыгыздагыла.</li></ol>",
			"<b>II. Элементтери бүтүн болгон эки өлчөмдүү массивде төмөнкү аракетти  аткаргыла:</b>",
			"<ol><li>Биринчи минималдык элемент кездешкен жолчодон кийин жаңы жолчо  койгула.</li><li>Берилген сан кездешкен бардык мамычалардын алдынан жаңы мамыча  койгула.</li><li>Бир да жуп элементи жок бардык жолчону өчүргүлө.</li><li>Бардык элементтери оң болгон бардык мамычаларды өчүргүлө.</li><li>Эгерде маанилери дал келсе, k-жолчону жана j-мамычаны өчүргүлө.  Бардык нөлдүк жолчолорду жана мамычаларды өчүрүп, массивди тыгыздагыла.</li></ol>"
		]
	}]
}, {
	"theme": "9. Символдор жана жолчолор",
	"collapsed": false,
	"content": [],
	"themes": [{
		"theme": "Символдор жана жолчолор",
		"content": ["Тексттик маалыматты иштеп чыгуу заманбап программалоонун эң  кеңири таркалган маселелеринин бири болуп саналат. С# программалоо тили ал  маселени чечүү үчүн төмөнкү каражаттарды сунуш кылат: char символдору,  string өзгөрүлбөс жолчолору, StringBuilder өзгөрүлүүчү жолчолору жана Regex  регулярдуу туюнтмалары."]
	}, {
		"theme": "Char символдору",
		"content": [
			"Char символдук тиби символдорду Unicode кодировкасында сактоо үчүн  арналган. Символдук тип C# программалоо тилинде орнотулган берилгендер  тибине кирет жана  System аталыштардын мейкиндигиндеги .Net  библиотекасынын стандарттык Сhar классына дал келет. Бул класста символдун  категориясын жана көрүнүшүн берүүгө мүмкүндүк берүүчү, мындан сырткары  символду жогорку же төмөнкү регистрге, санга которуучу статикалык методдор  аныкталган. Негизги методдорду карайбыз:",
			"{{img=9.png}}",
			"{{img=10.png}}",
			"{{img=11.png}}"
		]
	}, {
		"theme": "String өзгөрүлбөс жолчолору",
		"content": [
			"String тиби, Unicode кодировкасындагы сиволдордун жолчолору менен  иштөө үчүн арналган, C# программалоо тилинин орнотулган берилгендер тиби  болуп саналат. Ага.Net библиотекасынын System.String классынын базалык  тиби дал келет. String тибинин ар бир объектиси – бул Unicode символдорунун  өзгөрүлбөс удаалаштыгы, башкача айтканда жолчону өзгөртүү үчүн арналган  методдор жолчонун өзгөртүлгөн копиясын гана кайтарат, ал эми баштапкы  жолчо өзгөрүлбөстөн калат.",
			"Жолчону бир канча ыкма менен түзүүгө болот:",
			"{{img=12.png}}",
			"String классы жолчолорду салыштыруу, жолчолордо издөө жана  жолчолор менен башка иш аракеттерди аткаруучу методдорго бай. Ошол методдорду карайбыз."
		]
	}, {
		"theme": "Өз алдынча иштөө үчүн тапшырмалар",
		"content": [
			"Эскертүү. Программага берилгендер командалык жолчо аркылуу  берилет.",
			"1-тапшырма. Колдонуучунун фамилиясы, аты жана атасынын аты  белгилүү. Анын инсандык кодун табуу керек. Инсандык кодду табуунун  эрежеси: ар бир тамганын ордуна алфавиттеги тиешелүү катар номери коюлат.  Алынган сандарды бири бирине кошобуз. Эгер келип чыккан сумма бир  орундуу сан болбосо, анда сандын цифраларын бир орундуу санга келмейинче  бири бирине кошобуз. Мисалы:",
			"Баштапкы берилген: Александр Сергеевич Пушкин  Инсандык",
			"<code>()1+13+6+12+19+1+15+5+18)+(19+6+18+4+6+6+3+10+25)+(17+21+26+12+10+15  ==288  2+8+8=18  1+8=9</code>",
			"1-тапшырма. Цезардын шифринде алфавит сааттын жебеси аркылуу  тегеректе жайгашат. Алфавиттин акыркы тамгасынан кийин алфавиттин  биринчи тамгасы келет, башкача айтканда, «я» тамгасынан кийин «а» тамгасы  келе. Текстти шифирлөө убагында тамгалар сааттын жебеси аркылуу берилген  позициядан кийин (жылдыруу) турган тиешелүү тамгалар менен  алмаштырылат. Мисалы, эгер жылдыруу 3кө барабар болсо, анда «а» тамгасы  «г» тамгасына, «б» тамгасы «д» тамгасына, ал эми «я»тгасы «в» тамгасына  алмаштырылат.<br />Маалыматты Цезардын шифри менен k жылдыруусу менен шифрлегиле.",
			"2-тапшырма. Жылдыруунун маанисин билүү менен Цезардын шифри  менен шифрленген маалыматты оңой эле расшифровкалоого болот. Бирок  Цезардын шифрин жылдыруунун мааниси белгисиз учурунда да төмөнкү  алгоритмдин жардамында расшифровкалоого болот:",
			"1) Тамгалардын маалыматта f жайгашуу жыштыгын тапкыла, мында i=1, … n  i(n- алфавиттеги тамгалардын саны);<br />2) Тамгалардын маалыматтагы p ыктымалдуулугун тапкыла, мында i=1, … n<br />3) sum(k)=  p  f (k) эсептегиле, мында k – жылдыруунун мааниси. k от 1 ден n ге чейинки ар түрдүү маанилери үчүн sum дун минималдык маанисин  тапкыла. sum дун минималдык маанисине жеткен учурундагы k нын  мааниси - Цезардын шифрин жылдыруунун мааниси болуп эсептелет.<br />4) Табылган k нын маанисин берилген маалыматты расшифровкалоо үчүн  колдонгула."
		]
	}]
}, {
	"theme": "10. Регулярдык туюнтмалар",
	"collapsed": false,
	"content": [],
	"themes": [{
		"theme": "Регулярдык туюнтмалар",
		"content": ["Стандарттык string классы жолчолордун үстүнөн ар түрдүү  операцияларды аткарууга мүмкүндүк берет, анын ичинде жолчолорду издөө,  алмаштыруу, коюуу жана өчүрүү ж.б. Мындан сырткары, символдук  маалыматтарды иштетүү учурунда стандарттык мүмкүнчүлүктөр жетишбей  калган маселелердин классы дагы бар. Мындай маселелерди чечүүнү  жеңилдетүү максатында,  Net Framework тө регулярдык туюнтмаларга  негизделген жолчолор менен иштөөчү кубаттуураак аппарат камтылган.", "Регулярдык туюнтмалар тексттик маалыматтарды иштетүү үчүн арналуу  менен төмөнкүлөрдү камсыз кылат:", "<ol><li>Текстте берилген шаблон аркылуу эффективдүү издөө;</li><li>Текстти редактирлөө;</li><li>Текст менен иштөөнүн жыйынтыктары боюнча жыйынтыктоочу отчетторду түзүү.</li></ol>"]
	}, {
		"theme": "Регулярдык туюнтмалардагы метасимволдор",
		"content": ["Регулярдык туюнтма – бул тиешелүү тексттин фрагментин издөөнү  аткаруучу шаблон. Регулярдык туюнтмаларды баяндап жазуучу тил эки  көрүнүштөгү символдордон турат: жөнөкөй символдор жана метасимволдор.  Жөнөкөй символ туюнтмада өзүн өзү туюнтат, ал эми метасимвол кандайдыр  бир символдордун классын туюндурат.", "Kөп колдонулуучу метасимволдорду карайбыз:", "{{img=13.png}}", "{{img=14.png}}"]
	}, {
		"theme": "Практикум",
		"content": [
			"Мазмундуу тексттик маалыматты камтыган жолчо берилген.  Маалыматтын сөздөрү боштуктар жана тыныш белгилери менен бөлүнөт.",
			"<ol><li>Берилген сөз маалыматта жашаарын аныктагыла.</li><li>Берилген узундуктагы бардык сөздөрдү чыгаргыла.</li><li>Маалыматтын баш тамга менен жазылган бардык сөздөрүн экранга  чыгаргыла.</li><li>Маалыматтан жалгыз тамгадан турган бардык сөздөрдү өчүргүлө.</li><li>Маалыматтан бардык тыныш белгилерди өчүргүлө.</li><li>Маалыматтан бардык орус сөздөрүн өчүргүлө.</li><li>Маалыматтан үндүү тамгалары менен башгалган орус сөздөрүн гана  өчүргүлө.</li><li>Бардык англис сөздөрүн көп чекитке алмаштыргыла.</li><li>Маалыматта кезиккен бүтүн сандардын максимумун табуу.</li><li>Тексттеги бардык сандардын (бүтүн жана чыныгы сандар, чыныгы сандар  экспонанта формасында да жазылуусу мүмкүн) суммасын табуу.</li><li>Маалыматта xx-xx-xx, xxx-xxx же xxx-xx-xx форматында жазылган  телефондун номерлери кезигиши мүмкүн. Маалыматта кармалган бардык  телефондордун номерлерин чыгаруу.</li><li>Маалыматта кк.аа.жжжж форматында дата кармалышы мүмкүн. Берилген  форматта: кк – 1 ден 31 ге чейинки диапозондогу бүтүн сан, аа – 1 ден 12 ге  чейинки диапозондогу бүтүн сан, ал эми жжжж – 1900 дон 2010 го чейинки  диапозондогу бүтүн сан. Учурдагы жылга тийиштүү бардык даталарды  экранга чыгаргыла.</li><li>Маалыматта d.d.d.d форматындагы компьютерлердин IP-адрестери  кармалышы мүмкүн, мында d – 0 дөн 255 ге чейинки диапозондогу бүтүн  сан. Текстте кезиккен бардык IP-адрестерди чыгаруу.</li><li>Маалыматта d.d.d.d форматындагы компьютерлердин IP-адрестери  кармалышы мүмкүн, мында d – 0 дөн 255 ге чейинки диапозондогу бүтүн  сан. Маалыматтан эң акыркы d саны берилген цифра менен башталган IP-  адрестерди өчүрүү (берилген цифра клавиатурадан кийрилет).</li><li>Мааалыматта кармалган бардык web-сайттардын адресстерин экранга  чыгаргыла.</li><li>Маалыматта кк.аа.жжжж форматында дата кармалышы мүмкүн. Берилген  форматта: кк – 1 ден 31 ге чейинки диапозондогу бүтүн сан, аа – 1 ден 12 ге  чейинки диапозондогу бүтүн сан, ал эми жжжж – 1900 дон 2010 го чейинки диапозондогу бүтүн сан. Маалыматтагы ар бир датаны кийинки күндүн  датасы менен алмаштыргыла.</li><li>Маалыматта кк.аа.жжжж форматында дата кармалышы мүмкүн. Берилген  форматта: кк – 1 ден 31 ге чейинки диапозондогу бүтүн сан, аа – 1 ден 12 ге  чейинки диапозондогу бүтүн сан, ал эми жжжж – 1900 дон 2010 го чейинки  диапозондогу бүтүн сан. Маалыматтагы ар бир датаны мурунку күндүн  датасы менен алмаштыргыла.</li><li>Маалыматта сс.мм.сс форматында убакыттар кармалышы мүмкүн. Берилген  форматта сс – 00 дөн 24 кө чейики диапозондогу бүтүн сан, ал эми мм жана  сс - 00 дөн 60 ка чейики диапозондогу бүтүн сан. Минуттун бүтүн бөлүгүнө  чейин тегеректөө эрежесин колдонуу менен ар бир убакытты чч:мм  форматына өзгөрткүлө.</li><li>Маалыматта сс.мм форматында убакыттар кармалышы мүмкүн. Берилген  форматта сс – 00 дөн 24 кө чейики диапозондогу бүтүн сан, ал эми мм - 00  дөн 60 ка чейики диапозондогу бүтүн сан. Убакытты n минутка  жогорулаткыла.</li><li>Маалыматта сс.мм форматында убакыттар кармалышы мүмкүн. Берилген  форматта сс – 00 дөн 24 кө чейики диапозондогу бүтүн сан, ал эми мм - 00  дөн 60 ка чейики диапозондогу бүтүн сан. Убакытты n минутка  төмөндөткүлө.</li></ol>"
		]
	}, {
		"theme": "Өз алдынча иштөө үчүн тапшырмалар",
		"content": ["Интернет жана кошумча адабияттарды колдонуу менен Group классы  жана Match классынын Groups коллекциялары менен иштөөнү кеңири окуп үйрөнгүлө."]
	}]
}, {
	"theme": "11. С# - системасында кийрүү-чыгарууну уюштуруу",
	"collapsed": false,
	"content": [],
	"themes": [{
		"theme": "С# - системасында кийрүү-чыгарууну уюштуруу",
		"content": ["С#-программалары  иерархиясынын негизинде курулган агымдар аркылуу аткарышат. Агым  stream) — берилгендерди генерациялоочу жана кабыл алуучу абстракция.  кийрүү-чыгаруу операцияларын класстардын  (Агымдардын жардамында берилгендерди ар түрдүү булактардан (клавиатура,  файл) окууга жана ар түрдүү булактарга (принтер, экран, файл) жазууга мүмкүн  болот. Агымдардын ар түрдүү физикалык түзүлүштөр менен байланышканына  карабастан, алардын бардыгынын иштөө мүнөзү окшош. Ошондуктан кийрүү-  чыгаруу класстарын жана методдорун көптөгөн түзүлүштөрдүн типтерине  колдонууга болот.", "Кийрүү-чыгаруу агымдарынын иерархиясынын эң төмөнкү деңгээлинде  байттар менен иштөөчү агымдар жайгашкан. Бул, көпчүлүк түзүлүштөр  кийрүү-чыгаруу операцияларын аткаруу учурунда байттарга багытталганы  менен түшүндүрүлөт. Бирок адамдар үчүн символдор менен иштөө ыңгайлуу,  ошондуктан байттык агымдарды символдукка жана тескерисинчеге которуучу,  фактылык түрүндө программалык кабыкчанын (оболочка же кыртыш)  жумушун аткарган символдук агымдар иштелип чыккан. Мындан сырткары,  int-, double-, short- маанилери менен иштөө үчүн, байттык агымдар үчүн  программалык кабыкчанын жумушун аткарган, бирок өздөрүнүн маанилери  менен эмес, алардын экилик код түрүндөгү ички көрүнүштөрү менен иштөөчү  агымдар ишке ашырылган.", "Агымдык С#-системасынын борбордук бөлүгүн System.IO аталыштар  мейкиндигинин Stream классы ээлейт. Stream классы байттык агымды сунуш  кылат жана бардык калган агымдык класстар үчүн базалык класс болуп  эсептелинет. Stream класстан байттык агымдардын төмөнкү класстары  чыгарылган:", "<ol><li>FileStream - байттык агым, файлдык кийрүү-чыгаруу үчүн иштелип  чыгарылган;</li><li>BufferedStream – программалык кабыкчага байттык агымды камтый жана  буферлештирүүнү кошот, көпчүлүк учурда программанын иштөө  өндүрүмдүүлүгүн жогорулатат;</li><li>MemoryStream – байттык агым, берилгендерди сактоо үчүн эсти  колдонот.</li></ol>", "Программист өзүнүн агымдык класстарын дагы чыгара алат. Бирок  көпчүлүк тиркемелер үчүн системада орнотулган агымдар жетиштүү."]
	}, {
		"theme": "Өз алдынча иштөө үчүн тапшырмалар",
		"content": ["Интернет жана кошумча адабияттарды колдонуу менен төмөнкү  класстарды колдонууну карап чыккыла:", "<ol><li>MemoryStream классы;</li><li>StringReader жана StringWriter класстарын.</li></ol>"]
	}]
}, {
	"theme": "12. Файлдык система менен иштөө",
	"collapsed": false,
	"content": [],
	"themes": [{
		"theme": "Файлдык система менен иштөө",
		"content": ["System.IO аттар мейкиндигинде компьютердин файлдык системасы  менен иштөө үчүн төрт класс каралган, б.а. файл жана каталогду түзүү үчүн,  өчүрүү, которуу үчүн ж.б.", "Биринчи эки тип — Directory жана Fi1е статистикалык методдордун  жардамында өзүнүн мүмкүнчүлүктөрүн реализациялайт, ошондуктан берилген  класстар дал келүүчү объекттерди (класстардын экземплярын) түзбөө үчүн  колдонулушу мүмкүн..", "Кийинки типтер – DirectoryInfo жана FileInfo Directory жана Fi1е менен  функционалдык мүмкүнчүлүктөрү менен окшоштугуна ээ, бирок FileSystemInfo  классынын туундусу жана ошондуктан класстардын дал келүүчү  экземплярларын түзүү жолу менен реализацияланат."]
	}, {
		"theme": "Өз алдынча иштөө үчүн тапшырмалар",
		"content": ["Интернет жана кошумча адабияттарды колдонуу менен берилгендерди  асинхрондук кийирүү-чыгарууну уюштуруу ыкмаларын карап чыккыла."]
	}]
}]